<?xml version="1.0" encoding="UTF-8"?>
<svg width="375px" height="131px" viewBox="0 0 375 131" version="1.1" xmlns="http://www.w3.org/2000/svg" xmlns:xlink="http://www.w3.org/1999/xlink">
    <!-- Generator: Sketch 48.2 (47327) - http://www.bohemiancoding.com/sketch -->
    <title>Lineage</title>
    <desc>Created with Sketch.</desc>
    <defs>
        <linearGradient x1="50%" y1="115.100337%" x2="50%" y2="-3.4888174%" id="linearGradient-1">
            <stop stop-color="#E92530" stop-opacity="0.9" offset="0%"></stop>
            <stop stop-color="#701217" stop-opacity="0.9" offset="51.7239318%"></stop>
            <stop stop-color="#000000" stop-opacity="0.9" offset="100%"></stop>
        </linearGradient>
        <path d="M-1.5,421.500165 C37.6379107,422.131514 55.2092479,323.742188 87.171875,323.742188 C119.134502,323.742188 155.12608,361.325311 199.612197,356.369353 C274.49309,348.027278 287.114435,420.502882 325.768001,393.539833 C361.17215,368.843435 370.093908,305.71582 377.5,311.342101" id="path-2"></path>
        <filter x="-4.1%" y="-15.8%" width="108.2%" height="128.1%" filterUnits="objectBoundingBox" id="filter-3">
            <feMorphology radius="2.5" operator="dilate" in="SourceAlpha" result="shadowSpreadOuter1"></feMorphology>
            <feOffset dx="0" dy="-2" in="shadowSpreadOuter1" result="shadowOffsetOuter1"></feOffset>
            <feMorphology radius="2.5" operator="erode" in="SourceAlpha" result="shadowInner"></feMorphology>
            <feOffset dx="0" dy="-2" in="shadowInner" result="shadowInner"></feOffset>
            <feComposite in="shadowOffsetOuter1" in2="shadowInner" operator="out" result="shadowOffsetOuter1"></feComposite>
            <feGaussianBlur stdDeviation="4" in="shadowOffsetOuter1" result="shadowBlurOuter1"></feGaussianBlur>
            <feColorMatrix values="0 0 0 0 1   0 0 0 0 1   0 0 0 0 1  0 0 0 0.269078351 0" type="matrix" in="shadowBlurOuter1"></feColorMatrix>
        </filter>
    </defs>
    <g id="GRAFICA_RITMOCARDIACO" stroke="none" stroke-width="1" fill="none" fill-rule="evenodd" transform="translate(0.000000, -299.000000)" stroke-linecap="round">
        <g id="Lineage">
            <use fill="black" fill-opacity="1" filter="url(#filter-3)" xlink:href="#path-2"></use>
            <use stroke="url(#linearGradient-1)" stroke-width="5" xlink:href="#path-2"></use>
        </g>
    </g>
</svg>